My Data Analysis Portfolio - Flu Anlaysis - Machine Learning
…
3. Cross validation

# 5 fold cross-validation 5 times repeated 5x5
# stratify on Body Temp
# use vfold_cv to create a resample object for the training data 

#CV on training data
fold_train = vfold_cv(data_train, v = 5, repeats = 5, strata = BodyTemp)
fold_train

#  5-fold cross-validation repeated 5 times using stratification 
# A tibble: 25 × 3
   splits            id      id2  
   <list>            <chr>   <chr>
 1 <split [405/103]> Repeat1 Fold1
 2 <split [405/103]> Repeat1 Fold2
 3 <split [406/102]> Repeat1 Fold3
 4 <split [408/100]> Repeat1 Fold4
 5 <split [408/100]> Repeat1 Fold5
 6 <split [405/103]> Repeat2 Fold1
 7 <split [405/103]> Repeat2 Fold2
 8 <split [406/102]> Repeat2 Fold3
 9 <split [408/100]> Repeat2 Fold4
10 <split [408/100]> Repeat2 Fold5
# … with 15 more rows

#CV on test data
fold_test = vfold_cv(data_test, v = 5, repeats = 5, strata = BodyTemp)
fold_test

#  5-fold cross-validation repeated 5 times using stratification 
# A tibble: 25 × 3
   splits           id      id2  
   <list>           <chr>   <chr>
 1 <split [175/47]> Repeat1 Fold1
 2 <split [176/46]> Repeat1 Fold2
 3 <split [179/43]> Repeat1 Fold3
 4 <split [179/43]> Repeat1 Fold4
 5 <split [179/43]> Repeat1 Fold5
 6 <split [175/47]> Repeat2 Fold1
 7 <split [176/46]> Repeat2 Fold2
 8 <split [179/43]> Repeat2 Fold3
 9 <split [179/43]> Repeat2 Fold4
10 <split [179/43]> Repeat2 Fold5
# … with 15 more rows
…
Workflow definition

#create workflow
tree_workflow = workflow()%>%
  add_model(tree_spec)%>%
  add_recipe(data_recipe) #recipe created in step 4 of the setup

tuning grid specification

tree_grid = grid_regular(cost_complexity(),
                         tree_depth(),
                         levels = 5)
tree_grid

# A tibble: 25 × 2
   cost_complexity tree_depth
             <dbl>      <int>
 1    0.0000000001          1
 2    0.0000000178          1
 3    0.00000316            1
 4    0.000562              1
 5    0.1                   1
 6    0.0000000001          4
 7    0.0000000178          4
 8    0.00000316            4
 9    0.000562              4
10    0.1                   4
# … with 15 more rows
…
tree_cv

# Tuning results
# 5-fold cross-validation repeated 5 times using stratification 
# A tibble: 25 × 5
   splits            id      id2   .metrics          .notes          
   <list>            <chr>   <chr> <list>            <list>          
 1 <split [405/103]> Repeat1 Fold1 <tibble [50 × 6]> <tibble [1 × 3]>
 2 <split [405/103]> Repeat1 Fold2 <tibble [50 × 6]> <tibble [1 × 3]>
 3 <split [406/102]> Repeat1 Fold3 <tibble [50 × 6]> <tibble [1 × 3]>
 4 <split [408/100]> Repeat1 Fold4 <tibble [50 × 6]> <tibble [1 × 3]>
 5 <split [408/100]> Repeat1 Fold5 <tibble [50 × 6]> <tibble [1 × 3]>
 6 <split [405/103]> Repeat2 Fold1 <tibble [50 × 6]> <tibble [1 × 3]>
 7 <split [405/103]> Repeat2 Fold2 <tibble [50 × 6]> <tibble [1 × 3]>
 8 <split [406/102]> Repeat2 Fold3 <tibble [50 × 6]> <tibble [1 × 3]>
 9 <split [408/100]> Repeat2 Fold4 <tibble [50 × 6]> <tibble [1 × 3]>
10 <split [408/100]> Repeat2 Fold5 <tibble [50 × 6]> <tibble [1 × 3]>
# … with 15 more rows

There were issues with some computations:

  - Warning(s) x25: There was 1 warning in `dplyr::summarise()`. ℹ In argument: `.est...

Run `show_notes(.Last.tune.result)` for more information.

#use collect metrics to give tibble with the results from the tuning
tree_cv %>%
  collect_metrics()

# A tibble: 50 × 8
   cost_complexity tree_depth .metric .estimator     mean     n  std_err .config
             <dbl>      <int> <chr>   <chr>         <dbl> <int>    <dbl> <chr>  
 1    0.0000000001          1 rmse    standard     1.19      25  0.0181  Prepro…
 2    0.0000000001          1 rsq     standard     0.0361    25  0.00422 Prepro…
 3    0.0000000178          1 rmse    standard     1.19      25  0.0181  Prepro…
 4    0.0000000178          1 rsq     standard     0.0361    25  0.00422 Prepro…
 5    0.00000316            1 rmse    standard     1.19      25  0.0181  Prepro…
 6    0.00000316            1 rsq     standard     0.0361    25  0.00422 Prepro…
 7    0.000562              1 rmse    standard     1.19      25  0.0181  Prepro…
 8    0.000562              1 rsq     standard     0.0361    25  0.00422 Prepro…
 9    0.1                   1 rmse    standard     1.21      25  0.0177  Prepro…
10    0.1                   1 rsq     standard   NaN          0 NA       Prepro…
# … with 40 more rows
…
evaluate the final fit

#predicted and residuals
tree_residuals = tree_f_fit %>%
  augment(data_train) %>% #use augment() to make predictions from train data
  select(c(.pred, BodyTemp)) %>%
  mutate(.resid = BodyTemp - .pred) #calculate residuals and make new row.

tree_residuals

# A tibble: 508 × 3
   .pred BodyTemp .resid
   <dbl>    <dbl>  <dbl>
 1  99.2     97.8 -1.44 
 2  99.2     98.1 -1.14 
 3  98.7     98.1 -0.591
 4  98.7     98.2 -0.491
 5  98.7     97.8 -0.891
 6  98.7     98.2 -0.491
 7  98.7     98.1 -0.591
 8  99.2     98   -1.24 
 9  99.2     97.7 -1.54 
10  99.2     98.2 -1.04 
# … with 498 more rows
…
tuning using cross validation

lasso_cv = lasso_workflow %>%
  tune_grid(resamples = fold_train,
            grid = lasso_grid,
            control = control_grid(verbose = FALSE, save_pred = TRUE),
            metrics = metric_set(rmse))

lasso_cv%>% collect_metrics()

# A tibble: 30 × 7
    penalty .metric .estimator  mean     n std_err .config              
      <dbl> <chr>   <chr>      <dbl> <int>   <dbl> <chr>                
 1 0.0001   rmse    standard    1.18    25  0.0167 Preprocessor1_Model01
 2 0.000127 rmse    standard    1.18    25  0.0167 Preprocessor1_Model02
 3 0.000161 rmse    standard    1.18    25  0.0167 Preprocessor1_Model03
 4 0.000204 rmse    standard    1.18    25  0.0167 Preprocessor1_Model04
 5 0.000259 rmse    standard    1.18    25  0.0167 Preprocessor1_Model05
 6 0.000329 rmse    standard    1.18    25  0.0167 Preprocessor1_Model06
 7 0.000418 rmse    standard    1.18    25  0.0167 Preprocessor1_Model07
 8 0.000530 rmse    standard    1.18    25  0.0167 Preprocessor1_Model08
 9 0.000672 rmse    standard    1.18    25  0.0167 Preprocessor1_Model09
10 0.000853 rmse    standard    1.18    25  0.0167 Preprocessor1_Model10
# … with 20 more rows
…
evaluate the final fit (repeat)

lasso_residual = lasso_f_fit %>%
  augment(data_train) %>% 
  select(c(.pred, BodyTemp)) %>%
  mutate(resid = BodyTemp - .pred) 
lasso_residual

# A tibble: 508 × 3
   .pred BodyTemp  resid
   <dbl>    <dbl>  <dbl>
 1  98.8     97.8 -0.950
 2  98.8     98.1 -0.719
 3  98.5     98.1 -0.360
 4  98.8     98.2 -0.606
 5  98.7     97.8 -0.907
 6  98.7     98.2 -0.523
 7  98.4     98.1 -0.257
 8  99.3     98   -1.26 
 9  98.9     97.7 -1.24 
10  99.0     98.2 -0.769
# … with 498 more rows
…
tuning using cross validation

randomfor_cv = randomfor_workflow %>%
  tune_grid(resamples = fold_train,
            grid = 25,
            control = control_grid(save_pred = TRUE),
            metrics = metric_set(rmse))

i Creating pre-processing data to finalize unknown parameter: mtry

randomfor_cv %>% 
  collect_metrics()

# A tibble: 25 × 8
    mtry min_n .metric .estimator  mean     n std_err .config              
   <int> <int> <chr>   <chr>      <dbl> <int>   <dbl> <chr>                
 1    13    13 rmse    standard    1.19    25  0.0166 Preprocessor1_Model01
 2     5    36 rmse    standard    1.17    25  0.0165 Preprocessor1_Model02
 3    16    28 rmse    standard    1.18    25  0.0166 Preprocessor1_Model03
 4    30    40 rmse    standard    1.18    25  0.0168 Preprocessor1_Model04
 5    11    30 rmse    standard    1.17    25  0.0164 Preprocessor1_Model05
 6     7    26 rmse    standard    1.17    25  0.0166 Preprocessor1_Model06
 7    22    26 rmse    standard    1.19    25  0.0165 Preprocessor1_Model07
 8    10    11 rmse    standard    1.19    25  0.0166 Preprocessor1_Model08
 9     7     2 rmse    standard    1.20    25  0.0161 Preprocessor1_Model09
10     9     6 rmse    standard    1.19    25  0.0159 Preprocessor1_Model10
# … with 15 more rows
…
evaluate the final fit (repeat)

# get predicted and residual values in one dataset 
randomfor_residual = randomfor_f_fit %>%
  augment(data_train) %>% 
  select(c(.pred, BodyTemp)) %>%
  mutate(resid = BodyTemp - .pred) 
randomfor_residual

# A tibble: 508 × 3
   .pred BodyTemp  resid
   <dbl>    <dbl>  <dbl>
 1  98.7     97.8 -0.901
 2  98.5     98.1 -0.448
 3  98.7     98.1 -0.554
 4  98.7     98.2 -0.523
 5  98.8     97.8 -0.990
 6  98.5     98.2 -0.306
 7  98.3     98.1 -0.206
 8  99.1     98   -1.12 
 9  98.8     97.7 -1.09 
10  98.9     98.2 -0.667
# … with 498 more rows
…
