My Data Analysis Portfolio - Flu Anlaysis - Model Eval
…
── Model ───────────────────────────────────────────────────────────────────────
Logistic Regression Model Specification (classification)

Computational engine: glm 

#fit the model with training set
model_fit=workflow_1%>%
  fit(data=data_train)
model_fit%>%
  extract_fit_parsnip()%>%
  tidy()

# A tibble: 38 × 5
   term                 estimate std.error statistic p.value
   <chr>                   <dbl>     <dbl>     <dbl>   <dbl>
 1 (Intercept)           -3.21       9.15     -0.351  0.726 
 2 SwollenLymphNodesYes  -0.435      0.231    -1.88   0.0596
 3 ChestCongestionYes     0.0827     0.250     0.330  0.741 
 4 ChillsSweatsYes        0.119      0.332     0.358  0.720 
 5 NasalCongestionYes     0.327      0.295     1.11   0.267 
 6 CoughYNYes            -0.501      0.590    -0.849  0.396 
 7 SneezeYes              0.214      0.251     0.854  0.393 
 8 FatigueYes             0.391      0.463     0.845  0.398 
 9 SubjectiveFeverYes     0.423      0.260     1.62   0.104 
10 HeadacheYes            0.415      0.342     1.22   0.224 
# … with 28 more rows

#model evaluation
predict(model_fit,data_train)

Warning in predict.lm(object, newdata, se.fit, scale = 1, type = if (type == :
prediction from a rank-deficient fit may be misleading

# A tibble: 547 × 1
   .pred_class
   <fct>      
 1 No         
 2 No         
 3 No         
 4 No         
 5 No         
 6 No         
 7 No         
 8 No         
 9 No         
10 No         
# … with 537 more rows
…
# A tibble: 1 × 3
  .metric .estimator .estimate
  <chr>   <chr>          <dbl>
1 roc_auc binary         0.790

Predict

# eval
predict(model_fit,data_test)

Warning in predict.lm(object, newdata, se.fit, scale = 1, type = if (type == :
prediction from a rank-deficient fit may be misleading

# A tibble: 183 × 1
   .pred_class
   <fct>      
 1 No         
 2 No         
 3 No         
 4 No         
 5 Yes        
 6 Yes        
 7 No         
 8 Yes        
 9 Yes        
10 No         
# … with 173 more rows
…
# A tibble: 2 × 5
  term         estimate std.error statistic  p.value
  <chr>           <dbl>     <dbl>     <dbl>    <dbl>
1 (Intercept)  -0.625       0.170   -3.67   0.000242
2 RunnyNoseYes  0.00301     0.200    0.0150 0.988   

Use model to predict

# model eval training set ROC
predict(model_2,data_train)

# A tibble: 547 × 1
   .pred_class
   <fct>      
 1 No         
 2 No         
 3 No         
 4 No         
 5 No         
 6 No         
 7 No         
 8 No         
 9 No         
10 No         
# … with 537 more rows
…
#AUC
model_train_eval_2%>%
  roc_auc(truth=Nausea,.pred_No)

# A tibble: 1 × 3
  .metric .estimator .estimate
  <chr>   <chr>          <dbl>
1 roc_auc binary         0.500

# ROC and prediction
predict(model_2,data_test)

# A tibble: 183 × 1
   .pred_class
   <fct>      
 1 No         
 2 No         
 3 No         
 4 No         
 5 No         
 6 No         
 7 No         
 8 No         
 9 No         
10 No         
# … with 173 more rows
…
