My Data Analysis Portfolio - Data Analysis Exercise
…
#grid.arrange(year_plot, age_plot, ncol=2)

According to the footnotes column, there are multiple data points that had been suppressed due to NCHS confidentiality standards. Separated by state and/or age have many points that have been suppressed. The best option is to subset the data by year, and keep only rows containing all ages, and states.

Subset to keep

collected in 2020 and 2021

data = data %>% filter(State == "United States",Age_Group=="All Ages",Year == 2020 | Year == 2021, Sex == "All Sexes")%>%
  select(Start_Date, End_Date, COVID_19_Deaths,Pneumonia_Deaths,Influenza_Deaths, Group, Sex, Year)

data

# A tibble: 26 × 8
   Start_Date End_Date   COVID_19_Deaths Pneumonia_D…¹ Influ…² Group Sex   Year 
   <date>     <date>               <dbl>         <dbl>   <dbl> <chr> <chr> <chr>
 1 2020-01-01 2020-12-31          385666        352010    8787 By Y… All … 2020 
 2 2021-01-01 2021-12-31          463199        412020    1092 By Y… All … 2021 
 3 2020-01-01 2020-01-31               6         17909    2125 By M… All … 2020 
 4 2020-02-01 2020-02-29              25         15740    2373 By M… All … 2020 
 5 2020-03-01 2020-03-31            7174         22479    2437 By M… All … 2020 
 6 2020-04-01 2020-04-30           65550         46427    1237 By M… All … 2020 
 7 2020-05-01 2020-05-31           38329         29010     126 By M… All … 2020 
 8 2020-06-01 2020-06-30           18026         19294      40 By M… All … 2020 
 9 2020-07-01 2020-07-31           31135         27121      50 By M… All … 2020 
10 2020-08-01 2020-08-31           29911         27358      43 By M… All … 2020 
# … with 16 more rows, and abbreviated variable names ¹​Pneumonia_Deaths,
#   ²​Influenza_Deaths
…
