My Data Analysis Portfolio - Tidy Tuesday Exercise
…
▇▁▁▁▂

str(cagefreeData)

tibble [96 × 3] (S3: tbl_df/tbl/data.frame)
 $ observed_month: Date[1:96], format: "2007-12-31" "2008-12-31" ...
 $ percent_hens  : num [1:96] 3.2 3.5 3.6 4.4 5.4 6 5.9 5.7 8.6 9.9 ...
 $ percent_eggs  : num [1:96] NA NA NA NA NA NA NA NA NA NA ...

###Explore Egg Data

#table of the egg data
tibble(eggData)

# A tibble: 220 × 5
   observed_month prod_type     prod_process   n_hens     n_eggs
   <date>         <chr>         <chr>           <dbl>      <dbl>
 1 2016-07-31     hatching eggs all          57975000 1147000000
 2 2016-08-31     hatching eggs all          57595000 1142700000
 3 2016-09-30     hatching eggs all          57161000 1093300000
 4 2016-10-31     hatching eggs all          56857000 1126700000
 5 2016-11-30     hatching eggs all          57116000 1096600000
 6 2016-12-31     hatching eggs all          57750000 1132900000
 7 2017-01-31     hatching eggs all          57991000 1123400000
 8 2017-02-28     hatching eggs all          58286000 1014500000
 9 2017-03-31     hatching eggs all          58735000 1128500000
10 2017-04-30     hatching eggs all          59072000 1097200000
# … with 210 more rows
…
